{
    "swagger": "2.0",
    "info": {
        "title": "AdsDirect documented API",
        "version": "1.0.0"
    },
    "paths": {},
    "definitions": {
        "AdslotController": {
            "properties": {
                "adslot": {
                    "description": "Get full list of Adslots",
                    "type": "string"
                }
            }
        }
    }
}