{
    "swagger": "2.0",
    "info": {
        "name": "AdsDirect API",
        "_postman_id": "73a2f804-10ac-c8d7-17b2-56e40dc5aafd",
        "description": "AdsDirect Nigeria API documentation",
        "schema": "https://schema.getpostman.com/json/collection/v2.1.0/collection.json"
    },
    "item": [
        {
            "name": "Media House",
            "description": "",
            "item": [
                {
                    "name": "Media House",
                    "request": {
                        "method": "GET",
                        "header": [],
                        "body": {},
                        "url": {
                            "raw": "localhost:8123/api/media_house",
                            "host": [
                                "localhost"
                            ],
                            "port": "8123",
                            "path": [
                                "api",
                                "media_house"
                            ]
                        },
                        "description": "Get the list of all the available media house on AdsDirect"
                    },
                    "response": []
                },
                {
                    "name": "Select AdSlots based on Media House Name",
                    "request": {
                        "method": "GET",
                        "header": [],
                        "body": {},
                        "url": {
                            "raw": "localhost:8123/api/media_house/guardian?limit=1",
                            "host": [
                                "localhost"
                            ],
                            "port": "8123",
                            "path": [
                                "api",
                                "media_house",
                                "guardian"
                            ],
                            "query": [
                                {
                                    "key": "limit",
                                    "value": "1",
                                    "equals": true,
                                    "description": "The number of adslots to retrieve "
                                }
                            ]
                        },
                        "description": "Get the list of adslots based on their media house name"
                    },
                    "response": []
                }
            ]
        },
        {
            "name": "Category",
            "description": "Category related requests",
            "item": [
                {
                    "name": "List All Categories",
                    "request": {
                        "method": "GET",
                        "header": [],
                        "body": {},
                        "url": {
                            "raw": "localhost:8123/api/category",
                            "host": [
                                "localhost"
                            ],
                            "port": "8123",
                            "path": [
                                "api",
                                "category"
                            ]
                        },
                        "description": "List all categories"
                    },
                    "response": []
                }
            ]
        },
        {
            "name": "Register",
            "request": {
                "method": "POST",
                "header": [],
                "body": {
                    "mode": "formdata",
                    "formdata": [
                        {
                            "key": "first_name",
                            "value": "Oladipupo",
                            "description": "First name",
                            "type": "text"
                        },
                        {
                            "key": "last_name",
                            "value": "Lawal",
                            "description": "Last name",
                            "type": "text"
                        },
                        {
                            "key": "mobile",
                            "value": "08123456789",
                            "description": "Mobile number",
                            "type": "text"
                        },
                        {
                            "key": "email",
                            "value": "lawboi4love@gmail.com",
                            "description": "E-Mail address",
                            "type": "text"
                        },
                        {
                            "key": "password",
                            "value": "123456789",
                            "description": "Password",
                            "type": "text"
                        },
                        {
                            "key": "password_confirmation",
                            "value": "123456789",
                            "description": "Password Confirmation",
                            "type": "text"
                        }
                    ]
                },
                "url": {
                    "raw": "localhost:8123/api/register",
                    "host": [
                        "localhost"
                    ],
                    "port": "8123",
                    "path": [
                        "api",
                        "register"
                    ]
                },
                "description": "Register a new user"
            },
            "response": []
        },
        {
            "name": "Login",
            "request": {
                "method": "POST",
                "header": [],
                "body": {
                    "mode": "formdata",
                    "formdata": [
                        {
                            "key": "email",
                            "value": "lawboi4love@gmail.com",
                            "type": "text",
                            "description": "E-Mail Address"
                        },
                        {
                            "key": "password",
                            "value": "123456789",
                            "type": "text",
                            "description": "Password"
                        }
                    ]
                },
                "url": {
                    "raw": "localhost:8123/api/login",
                    "host": [
                        "localhost"
                    ],
                    "port": "8123",
                    "path": [
                        "api",
                        "login"
                    ]
                },
                "description": "Log a user in"
            },
            "response": []
        }
    ],
    "auth": {
        "type": "bearer",
        "bearer": [
            {
                "key": "token",
                "value": "eyJ0eXAiOiJKV1QiLCJhbGciOiJIUzI1NiJ9.eyJzdWIiOjEyLCJpc3MiOiJodHRwOi8vbG9jYWxob3N0OjgxMjMvYXBpL3JlZ2lzdGVyIiwiaWF0IjoxNTE3MzQ5MzM2LCJleHAiOjE1MTczNTI5MzYsIm5iZiI6MTUxNzM0OTMzNiwianRpIjoidjQwR3FTV2FoQ05sMU1TaiJ9.ByGSui0ACn-AgyWtMv2Fy1HGWG_xobJWJd3vjR8E32E",
                "type": "string"
            }
        ]
    },
    "event": [
        {
            "listen": "prerequest",
            "script": {
                "id": "0de229b9-253b-47b2-bdbf-52fc87fb576d",
                "type": "text/javascript",
                "exec": [
                    ""
                ]
            }
        },
        {
            "listen": "test",
            "script": {
                "id": "776a3e32-a5af-4e08-8907-01a3f39c7be6",
                "type": "text/javascript",
                "exec": [
                    ""
                ]
            }
        }
    ]
}